<svg width="14" height="8" viewBox="0 0 14 8" fill="none" xmlns="http://www.w3.org/2000/svg">
<path d="M12.8333 1.08334L7.00001 6.91668L1.16667 1.08334" stroke="#A3A3A3" stroke-linecap="round" stroke-linejoin="round"/>
</svg>
